{
  "codeInsee": "77132",
  "produits": [
    {
      "refCnp": "770400/01",
      "nom": "VAL D'EUROPE AGGLOMERATION",
      "type": "EauPotable",
      "sousType": "",
      "mission": "Distribution",
      "frais": [
        {
          "categorie": "FraisAdministratif",
          "typeService": "Souscription",
          "libelle": "Dépôt de garantie",
          "montantTtc": 0
        },
        {
          "categorie": "FraisAdministratif",
          "typeService": "Souscription",
          "libelle": "Frais d'accès au service ",
          "montantTtc": 30.31
        },
        {
          "categorie": "FraisDeDeplacement",
          "typeService": "Resiliation",
          "libelle": "Frais de résiliation avec fermeture",
          "montantTtc": 43.62
        },
        {
          "categorie": "FraisDeDeplacement",
          "typeService": "Souscription",
          "libelle": "Mise en service de branchement à la souscription",
          "montantTtc": 31.24
        }
      ]
    },
    {
      "refCnp": "770401/02",
      "nom": "VAL D'EUROPE AGGLOMERATION",
      "type": "Assainissement",
      "sousType": "Collectif",
      "mission": "Collecte",
      "frais": [
        {
          "categorie": "FraisAdministratif",
          "typeService": "Souscription",
          "libelle": "Frais d'accès au service",
          "montantTtc": 39.27
        }
      ]
    }
  ]
}
