{
  "codeInsee": "46201",
  "produits": [
    {
      "refCnp": "465100/01",
      "nom": "SYNDICAT EAU POTABLE ET ASSAINISSEMENT DU QUERCY BLANC",
      "type": "EauPotable",
      "sousType": "",
      "mission": "Distribution",
      "frais": [
        {
          "categorie": "FraisAdministratif",
          "typeService": "Souscription",
          "libelle": "Autre article",
          "montantTtc": 0
        },
        {
          "categorie": "FraisAdministratif",
          "typeService": "Souscription",
          "libelle": "Frais d'accès au service",
          "montantTtc": 56.85
        },
        {
          "categorie": "FraisDeDeplacement",
          "typeService": "Resiliation",
          "libelle": "Frais de fermeture pour simple résiliation",
          "montantTtc": 56.85
        },
        {
          "categorie": "FraisDeDeplacement",
          "typeService": "Souscription",
          "libelle": "Frais mise en service de branchement ",
          "montantTtc": 28.42
        }
      ]
    }
  ]
}
